solid desk
   facet normal 0.000000e+00 0.000000e+00 -1.000000e+00
      outer loop
         vertex 0.000000e+00 6.000000e-02 -5.000000e-02
         vertex -1.536252e-15 4.400000e-01 -5.000000e-02
         vertex 6.000000e-02 6.000000e-02 -5.000000e-02
      endloop
   endfacet
   facet normal 0.000000e+00 0.000000e+00 -1.000000e+00
      outer loop
         vertex 6.000000e-02 6.000000e-02 -5.000000e-02
         vertex -1.536252e-15 4.400000e-01 -5.000000e-02
         vertex 6.000000e-02 4.400000e-01 -5.000000e-02
      endloop
   endfacet
   facet normal 0.000000e+00 0.000000e+00 -1.000000e+00
      outer loop
         vertex 6.000000e-02 5.000000e-01 -5.000000e-02
         vertex 9.400000e-01 5.000000e-01 -5.000000e-02
         vertex 6.000000e-02 4.400000e-01 -5.000000e-02
      endloop
   endfacet
   facet normal 0.000000e+00 0.000000e+00 -1.000000e+00
      outer loop
         vertex 6.000000e-02 4.400000e-01 -5.000000e-02
         vertex 9.400000e-01 5.000000e-01 -5.000000e-02
         vertex 9.400000e-01 4.400000e-01 -5.000000e-02
      endloop
   endfacet
   facet normal 0.000000e+00 0.000000e+00 -1.000000e+00
      outer loop
         vertex 1.000000e+00 4.400000e-01 -5.000000e-02
         vertex 1.000000e+00 6.000000e-02 -5.000000e-02
         vertex 9.400000e-01 4.400000e-01 -5.000000e-02
      endloop
   endfacet
   facet normal 0.000000e+00 0.000000e+00 -1.000000e+00
      outer loop
         vertex 9.400000e-01 4.400000e-01 -5.000000e-02
         vertex 1.000000e+00 6.000000e-02 -5.000000e-02
         vertex 9.400000e-01 6.000000e-02 -5.000000e-02
      endloop
   endfacet
   facet normal 0.000000e+00 0.000000e+00 -1.000000e+00
      outer loop
         vertex 9.400000e-01 4.400000e-01 -5.000000e-02
         vertex 9.400000e-01 6.000000e-02 -5.000000e-02
         vertex 6.000000e-02 4.400000e-01 -5.000000e-02
      endloop
   endfacet
   facet normal 0.000000e+00 0.000000e+00 -1.000000e+00
      outer loop
         vertex 6.000000e-02 4.400000e-01 -5.000000e-02
         vertex 9.400000e-01 6.000000e-02 -5.000000e-02
         vertex 9.400000e-01 0.000000e+00 -5.000000e-02
      endloop
   endfacet
   facet normal 0.000000e+00 0.000000e+00 -1.000000e+00
      outer loop
         vertex 6.000000e-02 4.400000e-01 -5.000000e-02
         vertex 9.400000e-01 0.000000e+00 -5.000000e-02
         vertex 6.000000e-02 6.000000e-02 -5.000000e-02
      endloop
   endfacet
   facet normal 0.000000e+00 0.000000e+00 -1.000000e+00
      outer loop
         vertex 6.000000e-02 6.000000e-02 -5.000000e-02
         vertex 9.400000e-01 0.000000e+00 -5.000000e-02
         vertex 6.000000e-02 0.000000e+00 -5.000000e-02
      endloop
   endfacet
   facet normal -1.000000e+00 -0.000000e+00 0.000000e+00
      outer loop
         vertex 0.000000e+00 6.000000e-02 -8.000000e-01
         vertex 0.000000e+00 0.000000e+00 -8.000000e-01
         vertex 0.000000e+00 6.000000e-02 -5.000000e-02
      endloop
   endfacet
   facet normal -1.000000e+00 -0.000000e+00 0.000000e+00
      outer loop
         vertex 0.000000e+00 6.000000e-02 -5.000000e-02
         vertex 0.000000e+00 0.000000e+00 -8.000000e-01
         vertex 0.000000e+00 0.000000e+00 1.192093e-08
      endloop
   endfacet
   facet normal -1.000000e+00 -0.000000e+00 0.000000e+00
      outer loop
         vertex 0.000000e+00 6.000000e-02 -5.000000e-02
         vertex 0.000000e+00 0.000000e+00 1.192093e-08
         vertex 0.000000e+00 4.400000e-01 -5.000000e-02
      endloop
   endfacet
   facet normal -1.000000e+00 -0.000000e+00 0.000000e+00
      outer loop
         vertex 0.000000e+00 4.400000e-01 -5.000000e-02
         vertex 0.000000e+00 0.000000e+00 1.192093e-08
         vertex 0.000000e+00 5.000000e-01 1.192093e-08
      endloop
   endfacet
   facet normal -1.000000e+00 0.000000e+00 0.000000e+00
      outer loop
         vertex 0.000000e+00 4.400000e-01 -5.000000e-02
         vertex 0.000000e+00 5.000000e-01 1.192093e-08
         vertex 0.000000e+00 4.400000e-01 -8.000000e-01
      endloop
   endfacet
   facet normal -1.000000e+00 -0.000000e+00 0.000000e+00
      outer loop
         vertex 0.000000e+00 4.400000e-01 -8.000000e-01
         vertex 0.000000e+00 5.000000e-01 1.192093e-08
         vertex 0.000000e+00 5.000000e-01 -8.000000e-01
      endloop
   endfacet
   facet normal 0.000000e+00 -1.000000e+00 0.000000e+00
      outer loop
         vertex 9.400000e-01 0.000000e+00 -8.000000e-01
         vertex 1.000000e+00 0.000000e+00 -8.000000e-01
         vertex 9.400000e-01 0.000000e+00 -5.000000e-02
      endloop
   endfacet
   facet normal 0.000000e+00 -1.000000e+00 0.000000e+00
      outer loop
         vertex 9.400000e-01 0.000000e+00 -5.000000e-02
         vertex 1.000000e+00 0.000000e+00 -8.000000e-01
         vertex 1.000000e+00 0.000000e+00 1.192093e-08
      endloop
   endfacet
   facet normal 0.000000e+00 -1.000000e+00 -0.000000e+00
      outer loop
         vertex 9.400000e-01 0.000000e+00 -5.000000e-02
         vertex 1.000000e+00 0.000000e+00 1.192093e-08
         vertex 6.000000e-02 0.000000e+00 -5.000000e-02
      endloop
   endfacet
   facet normal 0.000000e+00 -1.000000e+00 -0.000000e+00
      outer loop
         vertex 6.000000e-02 0.000000e+00 -5.000000e-02
         vertex 1.000000e+00 0.000000e+00 1.192093e-08
         vertex 0.000000e+00 0.000000e+00 1.192093e-08
      endloop
   endfacet
   facet normal 0.000000e+00 -1.000000e+00 0.000000e+00
      outer loop
         vertex 6.000000e-02 0.000000e+00 -5.000000e-02
         vertex 0.000000e+00 0.000000e+00 1.192093e-08
         vertex 6.000000e-02 0.000000e+00 -8.000000e-01
      endloop
   endfacet
   facet normal 0.000000e+00 -1.000000e+00 0.000000e+00
      outer loop
         vertex 6.000000e-02 0.000000e+00 -8.000000e-01
         vertex 0.000000e+00 0.000000e+00 1.192093e-08
         vertex 0.000000e+00 0.000000e+00 -8.000000e-01
      endloop
   endfacet
   facet normal 1.000000e+00 0.000000e+00 0.000000e+00
      outer loop
         vertex 6.000000e-02 6.000000e-02 -5.000000e-02
         vertex 6.000000e-02 0.000000e+00 -5.000000e-02
         vertex 6.000000e-02 6.000000e-02 -8.000000e-01
      endloop
   endfacet
   facet normal 1.000000e+00 0.000000e+00 0.000000e+00
      outer loop
         vertex 6.000000e-02 6.000000e-02 -8.000000e-01
         vertex 6.000000e-02 0.000000e+00 -5.000000e-02
         vertex 6.000000e-02 0.000000e+00 -8.000000e-01
      endloop
   endfacet
   facet normal 0.000000e+00 1.000000e+00 0.000000e+00
      outer loop
         vertex 0.000000e+00 6.000000e-02 -5.000000e-02
         vertex 6.000000e-02 6.000000e-02 -5.000000e-02
         vertex 0.000000e+00 6.000000e-02 -8.000000e-01
      endloop
   endfacet
   facet normal 0.000000e+00 1.000000e+00 0.000000e+00
      outer loop
         vertex 0.000000e+00 6.000000e-02 -8.000000e-01
         vertex 6.000000e-02 6.000000e-02 -5.000000e-02
         vertex 6.000000e-02 6.000000e-02 -8.000000e-01
      endloop
   endfacet
   facet normal 0.000000e+00 0.000000e+00 -1.000000e+00
      outer loop
         vertex 6.000000e-02 6.000000e-02 -8.000000e-01
         vertex 6.000000e-02 0.000000e+00 -8.000000e-01
         vertex 0.000000e+00 6.000000e-02 -8.000000e-01
      endloop
   endfacet
   facet normal 0.000000e+00 0.000000e+00 -1.000000e+00
      outer loop
         vertex 0.000000e+00 6.000000e-02 -8.000000e-01
         vertex 6.000000e-02 0.000000e+00 -8.000000e-01
         vertex 0.000000e+00 0.000000e+00 -8.000000e-01
      endloop
   endfacet
   facet normal 1.000000e+00 0.000000e+00 -0.000000e+00
      outer loop
         vertex 1.000000e+00 4.400000e-01 -8.000000e-01
         vertex 1.000000e+00 5.000000e-01 -8.000000e-01
         vertex 1.000000e+00 4.400000e-01 -5.000000e-02
      endloop
   endfacet
   facet normal 1.000000e+00 0.000000e+00 0.000000e+00
      outer loop
         vertex 1.000000e+00 4.400000e-01 -5.000000e-02
         vertex 1.000000e+00 5.000000e-01 -8.000000e-01
         vertex 1.000000e+00 5.000000e-01 1.192093e-08
      endloop
   endfacet
   facet normal 1.000000e+00 0.000000e+00 -0.000000e+00
      outer loop
         vertex 1.000000e+00 4.400000e-01 -5.000000e-02
         vertex 1.000000e+00 5.000000e-01 1.192093e-08
         vertex 1.000000e+00 6.000000e-02 -5.000000e-02
      endloop
   endfacet
   facet normal 1.000000e+00 0.000000e+00 -0.000000e+00
      outer loop
         vertex 1.000000e+00 6.000000e-02 -5.000000e-02
         vertex 1.000000e+00 5.000000e-01 1.192093e-08
         vertex 1.000000e+00 0.000000e+00 1.192093e-08
      endloop
   endfacet
   facet normal 1.000000e+00 0.000000e+00 0.000000e+00
      outer loop
         vertex 1.000000e+00 6.000000e-02 -5.000000e-02
         vertex 1.000000e+00 0.000000e+00 1.192093e-08
         vertex 1.000000e+00 6.000000e-02 -8.000000e-01
      endloop
   endfacet
   facet normal 1.000000e+00 0.000000e+00 0.000000e+00
      outer loop
         vertex 1.000000e+00 6.000000e-02 -8.000000e-01
         vertex 1.000000e+00 0.000000e+00 1.192093e-08
         vertex 1.000000e+00 7.888609e-31 -8.000000e-01
      endloop
   endfacet
   facet normal 0.000000e+00 1.000000e+00 0.000000e+00
      outer loop
         vertex 6.000000e-02 5.000000e-01 -8.000000e-01
         vertex -1.536252e-15 5.000000e-01 -8.000000e-01
         vertex 6.000000e-02 5.000000e-01 -5.000000e-02
      endloop
   endfacet
   facet normal 0.000000e+00 1.000000e+00 0.000000e+00
      outer loop
         vertex 6.000000e-02 5.000000e-01 -5.000000e-02
         vertex -1.536252e-15 5.000000e-01 -8.000000e-01
         vertex 0.000000e+00 5.000000e-01 1.192093e-08
      endloop
   endfacet
   facet normal 0.000000e+00 1.000000e+00 0.000000e+00
      outer loop
         vertex 6.000000e-02 5.000000e-01 -5.000000e-02
         vertex 0.000000e+00 5.000000e-01 1.192093e-08
         vertex 9.400000e-01 5.000000e-01 -5.000000e-02
      endloop
   endfacet
   facet normal 0.000000e+00 1.000000e+00 0.000000e+00
      outer loop
         vertex 9.400000e-01 5.000000e-01 -5.000000e-02
         vertex 0.000000e+00 5.000000e-01 1.192093e-08
         vertex 1.000000e+00 5.000000e-01 1.192093e-08
      endloop
   endfacet
   facet normal 0.000000e+00 1.000000e+00 0.000000e+00
      outer loop
         vertex 9.400000e-01 5.000000e-01 -5.000000e-02
         vertex 1.000000e+00 5.000000e-01 1.192093e-08
         vertex 9.400000e-01 5.000000e-01 -8.000000e-01
      endloop
   endfacet
   facet normal 0.000000e+00 1.000000e+00 0.000000e+00
      outer loop
         vertex 9.400000e-01 5.000000e-01 -8.000000e-01
         vertex 1.000000e+00 5.000000e-01 1.192093e-08
         vertex 1.000000e+00 5.000000e-01 -8.000000e-01
      endloop
   endfacet
   facet normal 0.000000e+00 0.000000e+00 1.000000e+00
      outer loop
         vertex 1.000000e+00 0.000000e+00 1.192093e-08
         vertex 1.000000e+00 5.000000e-01 1.192093e-08
         vertex 0.000000e+00 0.000000e+00 1.192093e-08
      endloop
   endfacet
   facet normal 0.000000e+00 0.000000e+00 1.000000e+00
      outer loop
         vertex 0.000000e+00 0.000000e+00 1.192093e-08
         vertex 1.000000e+00 5.000000e-01 1.192093e-08
         vertex 0.000000e+00 5.000000e-01 1.192093e-08
      endloop
   endfacet
   facet normal -1.000000e+00 0.000000e+00 0.000000e+00
      outer loop
         vertex 9.400000e-01 0.000000e+00 -5.000000e-02
         vertex 9.400000e-01 6.000000e-02 -5.000000e-02
         vertex 9.400000e-01 0.000000e+00 -8.000000e-01
      endloop
   endfacet
   facet normal -1.000000e+00 -0.000000e+00 0.000000e+00
      outer loop
         vertex 9.400000e-01 0.000000e+00 -8.000000e-01
         vertex 9.400000e-01 6.000000e-02 -5.000000e-02
         vertex 9.400000e-01 6.000000e-02 -8.000000e-01
      endloop
   endfacet
   facet normal 0.000000e+00 1.000000e+00 0.000000e+00
      outer loop
         vertex 9.400000e-01 6.000000e-02 -5.000000e-02
         vertex 1.000000e+00 6.000000e-02 -5.000000e-02
         vertex 9.400000e-01 6.000000e-02 -8.000000e-01
      endloop
   endfacet
   facet normal 0.000000e+00 1.000000e+00 0.000000e+00
      outer loop
         vertex 9.400000e-01 6.000000e-02 -8.000000e-01
         vertex 1.000000e+00 6.000000e-02 -5.000000e-02
         vertex 1.000000e+00 6.000000e-02 -8.000000e-01
      endloop
   endfacet
   facet normal 0.000000e+00 0.000000e+00 -1.000000e+00
      outer loop
         vertex 1.000000e+00 6.000000e-02 -8.000000e-01
         vertex 1.000000e+00 0.000000e+00 -8.000000e-01
         vertex 9.400000e-01 6.000000e-02 -8.000000e-01
      endloop
   endfacet
   facet normal 0.000000e+00 0.000000e+00 -1.000000e+00
      outer loop
         vertex 9.400000e-01 6.000000e-02 -8.000000e-01
         vertex 1.000000e+00 0.000000e+00 -8.000000e-01
         vertex 9.400000e-01 0.000000e+00 -8.000000e-01
      endloop
   endfacet
   facet normal -1.000000e+00 0.000000e+00 0.000000e+00
      outer loop
         vertex 9.400000e-01 4.400000e-01 -5.000000e-02
         vertex 9.400000e-01 5.000000e-01 -5.000000e-02
         vertex 9.400000e-01 4.400000e-01 -8.000000e-01
      endloop
   endfacet
   facet normal -1.000000e+00 -0.000000e+00 0.000000e+00
      outer loop
         vertex 9.400000e-01 4.400000e-01 -8.000000e-01
         vertex 9.400000e-01 5.000000e-01 -5.000000e-02
         vertex 9.400000e-01 5.000000e-01 -8.000000e-01
      endloop
   endfacet
   facet normal 0.000000e+00 -1.000000e+00 0.000000e+00
      outer loop
         vertex 1.000000e+00 4.400000e-01 -5.000000e-02
         vertex 9.400000e-01 4.400000e-01 -5.000000e-02
         vertex 1.000000e+00 4.400000e-01 -8.000000e-01
      endloop
   endfacet
   facet normal 0.000000e+00 -1.000000e+00 0.000000e+00
      outer loop
         vertex 1.000000e+00 4.400000e-01 -8.000000e-01
         vertex 9.400000e-01 4.400000e-01 -5.000000e-02
         vertex 9.400000e-01 4.400000e-01 -8.000000e-01
      endloop
   endfacet
   facet normal 0.000000e+00 0.000000e+00 -1.000000e+00
      outer loop
         vertex 1.000000e+00 5.000000e-01 -8.000000e-01
         vertex 1.000000e+00 4.400000e-01 -8.000000e-01
         vertex 9.400000e-01 5.000000e-01 -8.000000e-01
      endloop
   endfacet
   facet normal 0.000000e+00 0.000000e+00 -1.000000e+00
      outer loop
         vertex 9.400000e-01 5.000000e-01 -8.000000e-01
         vertex 1.000000e+00 4.400000e-01 -8.000000e-01
         vertex 9.400000e-01 4.400000e-01 -8.000000e-01
      endloop
   endfacet
   facet normal 0.000000e+00 -1.000000e+00 0.000000e+00
      outer loop
         vertex 6.000000e-02 4.400000e-01 -5.000000e-02
         vertex -1.536252e-15 4.400000e-01 -5.000000e-02
         vertex 6.000000e-02 4.400000e-01 -8.000000e-01
      endloop
   endfacet
   facet normal 0.000000e+00 -1.000000e+00 0.000000e+00
      outer loop
         vertex 6.000000e-02 4.400000e-01 -8.000000e-01
         vertex -1.536252e-15 4.400000e-01 -5.000000e-02
         vertex -1.536252e-15 4.400000e-01 -8.000000e-01
      endloop
   endfacet
   facet normal 1.000000e+00 0.000000e+00 0.000000e+00
      outer loop
         vertex 6.000000e-02 5.000000e-01 -5.000000e-02
         vertex 6.000000e-02 4.400000e-01 -5.000000e-02
         vertex 6.000000e-02 5.000000e-01 -8.000000e-01
      endloop
   endfacet
   facet normal 1.000000e+00 0.000000e+00 0.000000e+00
      outer loop
         vertex 6.000000e-02 5.000000e-01 -8.000000e-01
         vertex 6.000000e-02 4.400000e-01 -5.000000e-02
         vertex 6.000000e-02 4.400000e-01 -8.000000e-01
      endloop
   endfacet
   facet normal 0.000000e+00 0.000000e+00 -1.000000e+00
      outer loop
         vertex 6.000000e-02 5.000000e-01 -8.000000e-01
         vertex 6.000000e-02 4.400000e-01 -8.000000e-01
         vertex -1.536252e-15 5.000000e-01 -8.000000e-01
      endloop
   endfacet
   facet normal 0.000000e+00 0.000000e+00 -1.000000e+00
      outer loop
         vertex -1.536252e-15 5.000000e-01 -8.000000e-01
         vertex 6.000000e-02 4.400000e-01 -8.000000e-01
         vertex -1.536252e-15 4.400000e-01 -8.000000e-01
      endloop
   endfacet
endsolid